<svg width="77" height="80" viewBox="0 0 77 80" fill="none" xmlns="http://www.w3.org/2000/svg">
<g clip-path="url(#clip0_3226_303)">
<path d="M21.2329 14.2191C22.3083 14.2535 23.3571 14.4207 24.3027 14.9631C25.0155 15.371 25.1796 15.9165 24.8529 16.6027C24.509 17.3295 23.9635 17.514 23.2805 17.0716C22.5974 16.6293 21.8847 16.373 21.0781 16.4198C20.5764 16.4495 20.0715 16.548 19.8949 17.1248C19.7183 17.7015 20.1169 18.0063 20.5045 18.2689C21.297 18.8082 22.1441 19.2724 22.9194 19.832C24.0714 20.6682 24.6482 21.8046 24.5137 23.2707C24.3418 25.1464 23.2633 26.3124 21.3876 26.5969C19.8824 26.8251 18.5007 26.4656 17.2252 25.659C16.8673 25.4426 16.5687 25.1408 16.3562 24.7806C16.0154 24.182 16.1545 23.4989 16.7125 23.03C17.2706 22.5611 17.766 22.7471 18.2178 23.2097C18.9633 23.9678 19.8043 24.4774 20.925 24.2413C21.9003 24.0366 22.1754 23.1894 21.5283 22.436C21.0938 21.9374 20.4983 21.6545 19.9653 21.2872C19.537 20.9949 19.079 20.7417 18.6726 20.4213C17.3237 19.3568 16.8892 18.0017 17.3784 16.4886C17.8145 15.1413 19.0384 14.3004 20.6843 14.2113C20.864 14.2066 21.0516 14.2191 21.2329 14.2191Z" fill="#076E81"/>
<path d="M28.4001 22.325C28.5017 20.5838 28.5564 19.2583 28.6705 17.9391C28.7221 17.378 28.5346 17.2029 28.0062 17.2217C27.5368 17.2302 27.0672 17.2135 26.5995 17.1717C25.9071 17.1201 25.6116 16.734 25.6617 15.929C25.7086 15.3163 25.8649 14.7849 26.6636 14.8318C28.9472 14.9537 31.2308 15.0584 33.5144 15.1897C34.2022 15.2288 34.5257 15.6586 34.4523 16.4402C34.3913 17.0404 34.2241 17.5859 33.4347 17.5343C33.0189 17.5093 32.5922 17.5609 32.1843 17.4765C31.3934 17.3123 31.2464 17.6703 31.2136 18.3721C31.1198 20.8917 30.9698 23.4082 30.8369 25.9263C30.8135 26.3952 30.8619 26.9095 30.2945 27.108C29.6818 27.3221 29.0691 27.3112 28.5017 26.9517C28.1891 26.7563 28.1891 26.4437 28.2016 26.1217C28.2782 24.7118 28.3485 23.3098 28.4001 22.325Z" fill="#076E81"/>
<path d="M60.2873 14.2753C60.9516 14.2175 61.2877 14.5426 61.358 15.296C61.4346 16.1213 61.1939 16.4917 60.5093 16.5918C60.3009 16.6209 60.0925 16.6475 59.884 16.6715C58.4226 16.8372 58.4038 16.8387 58.5289 18.3486C58.7274 20.7338 58.9603 23.1159 59.1666 25.5012C59.2401 26.3452 58.9134 26.6828 57.9943 26.7641C57.0752 26.8454 56.6767 26.5922 56.5876 25.7591C56.3422 23.1159 56.0718 20.4775 55.8889 17.8313C55.8373 17.0904 55.6028 16.9544 54.9511 17.0998C54.5664 17.1664 54.1769 17.2009 53.7866 17.2029C53.0051 17.2436 52.6659 16.9341 52.5893 16.1275C52.5127 15.321 52.8284 14.9365 53.5943 14.8662C55.8274 14.665 58.0584 14.4681 60.2873 14.2753Z" fill="#076E81"/>
<path d="M75.9425 6.2819C75.7134 6.05162 75.5384 5.77323 75.4303 5.46691C75.3221 5.1606 75.2835 4.83405 75.3173 4.51096C75.3423 4.12176 75.3173 3.72944 75.3173 3.34024C75.3017 1.43644 74.5358 0.443906 72.7289 0H71.0095C69.0401 0.839358 68.5415 1.61307 68.5399 3.82947C68.5399 4.27181 68.5399 4.71416 68.5399 5.1565C68.5399 5.91302 67.8647 6.743 67.1207 6.88992C61.7282 7.94811 56.2778 8.54207 50.7993 8.92189C47.6357 9.13915 44.4612 9.2048 41.2897 9.32047C40.4113 9.35329 39.9252 9.78938 39.933 10.4943C39.9424 11.2227 40.491 11.6713 41.3898 11.6525C49.774 11.4743 58.1269 10.9413 66.386 9.39705C67.0503 9.27357 67.2066 9.42988 67.2035 10.1067C67.1775 16.0463 67.1775 21.9822 67.2035 27.9145C67.2035 28.6007 66.9691 28.7882 66.3704 28.8945C58.7459 30.256 51.0525 30.8984 43.3201 31.0828C35.6612 31.2672 28.0179 31.0609 20.3949 30.2872C17.0062 29.9418 13.63 29.4916 10.2804 28.8555C9.89121 28.782 9.52389 28.7804 9.52858 28.1443C9.55984 22.0484 9.55202 15.9603 9.53796 9.86753C9.53796 9.39862 9.66769 9.27983 10.1132 9.36892C10.9791 9.54085 11.8492 9.69716 12.7234 9.83783C17.5048 10.581 22.3203 11.0844 27.152 11.3462C29.906 11.5025 32.6648 11.5634 35.422 11.6588C35.9816 11.6791 36.4427 11.5025 36.6912 10.9445C36.7803 10.7546 36.8128 10.5432 36.7851 10.3354C36.7574 10.1276 36.6706 9.93207 36.5349 9.77219C36.2364 9.37048 35.8019 9.32359 35.3486 9.31265C31.441 9.21887 27.5458 9.07663 23.6539 8.75308C19.0397 8.36857 14.4428 7.84807 9.89902 6.9415C8.68453 6.69923 8.17967 6.06932 8.17967 4.84389V3.82947C8.17967 1.6115 7.68105 0.840921 5.70536 0.00312677H3.98601C2.18537 0.447033 1.41323 1.44113 1.39916 3.3418C1.39916 3.8623 1.38978 4.38279 1.39916 4.90485C1.40855 5.12559 1.37168 5.34585 1.29093 5.5515C1.21018 5.75715 1.08732 5.94365 0.930245 6.09902C0.262823 6.78832 -0.0169631 7.63393 -0.0075848 8.58739C-0.0075848 9.31578 -0.0075848 10.0442 -0.0075848 10.7757C-0.0075848 16.8122 -0.0075848 22.8492 -0.0075848 28.8867C-0.0075848 29.6573 0.0142983 30.4591 0.586374 31.0109C1.32413 31.7237 1.41323 32.5521 1.41166 33.4962C1.39603 47.8606 1.39291 62.2255 1.40229 76.591C1.40229 78.5698 2.16037 79.5608 3.98913 80.0062H5.70849C7.68105 79.1669 8.18279 78.3932 8.18279 76.183V32.4458C8.18279 31.3798 8.70016 30.9281 9.70676 31.1203C17.6048 32.6302 25.5873 33.2367 33.6042 33.4321C39.8484 33.5991 46.0971 33.451 52.3264 32.9882C57.2297 32.6099 62.1095 32.0738 66.9409 31.1391C68.0257 30.9296 68.5462 31.3454 68.5462 32.4442C68.5462 47.0212 68.5404 61.5982 68.529 76.1752C68.529 78.0728 69.1761 79.3842 71.0158 80.0031H72.7352C73.6261 79.8687 74.3404 79.4748 74.8249 78.6761C75.2188 78.0243 75.3298 77.3303 75.3298 76.5847C75.3215 69.9157 75.3215 63.2509 75.3298 56.5902C75.3364 56.3294 75.328 56.0685 75.3048 55.8087C75.2157 55.0147 74.7937 54.5582 74.1059 54.4988C73.7517 54.4691 73.399 54.5705 73.1146 54.7837C72.8302 54.997 72.634 55.3072 72.5632 55.6555C72.4909 56.0681 72.4673 56.4878 72.4929 56.9059C72.4929 63.1821 72.4929 69.4567 72.4929 75.7298C72.4929 76.0424 72.5038 76.355 72.4757 76.6676C72.4429 77.0349 72.3319 77.3459 71.8864 77.3475C71.4409 77.3491 71.2237 77.1005 71.1549 76.6879C71.1132 76.3515 71.0996 76.0122 71.1143 75.6735C71.1143 61.6675 71.1143 47.661 71.1143 33.654C71.1143 33.393 71.1143 33.1335 71.1283 32.8725C71.1471 32.4317 71.4081 32.302 71.8004 32.3035C72.1928 32.3051 72.4569 32.4302 72.4788 32.8725C72.4929 33.1585 72.4929 33.4446 72.4929 33.7306C72.4929 38.9408 72.4929 44.1478 72.4929 49.3517C72.4929 49.7941 72.4726 50.2395 72.6179 50.6678C72.8461 51.3399 73.4667 51.7838 74.0888 51.7244C74.7108 51.665 75.1657 51.168 75.2845 50.4615C75.3316 50.0737 75.3468 49.6826 75.3298 49.2923C75.3298 43.9029 75.3272 38.5141 75.322 33.1257C75.322 32.3895 75.4377 31.7534 75.9941 31.211C76.5506 30.6686 76.7319 29.9152 76.7334 29.1337C76.7334 22.2344 76.7334 15.3351 76.7334 8.43578C76.7334 7.60424 76.5037 6.86022 75.9425 6.2819ZM3.96412 4.52503C3.99931 4.11157 3.99931 3.69586 3.96412 3.2824C3.94068 2.62905 4.24235 2.33676 4.90195 2.34457C5.56156 2.35239 5.8476 2.66813 5.83978 3.2996C5.83978 3.58407 5.83978 3.87011 5.83978 4.15459C5.82549 4.31056 5.82549 4.46752 5.83978 4.6235C5.97733 5.38158 5.66316 5.54414 4.92384 5.56133C4.09386 5.57696 3.85784 5.30499 3.96412 4.52503ZM5.83978 32.8162C5.83978 47.3422 5.83978 61.8671 5.83978 76.3909C5.83978 77.4163 5.56312 77.7273 4.73783 77.657C4.24235 77.6148 3.97663 77.3663 3.97037 76.8614C3.97037 76.6535 3.97037 76.4441 3.97037 76.2362V54.6067C3.97558 47.3677 3.97819 40.1318 3.97819 32.8991C3.97819 32.613 3.79844 32.1394 4.12668 32.0675C4.64249 31.955 5.20675 32.0519 5.74913 32.08C5.78508 32.08 5.82884 32.2535 5.83822 32.3504C5.85385 32.5052 5.85385 32.6615 5.85385 32.8178L5.83978 32.8162ZM7.20901 28.9711C7.20901 29.5072 7.03551 29.7104 6.48376 29.6917C5.44433 29.6557 4.40178 29.6448 3.35766 29.6917C2.7215 29.7229 2.56207 29.4916 2.56676 28.8836C2.59177 25.5012 2.57926 22.1172 2.57926 18.7347C2.57926 15.3773 2.59333 12.0136 2.56519 8.66242C2.56519 8.0372 2.75589 7.83244 3.36548 7.85276C4.4049 7.88715 5.44746 7.8809 6.49157 7.85276C7.0402 7.83869 7.20901 8.05908 7.20745 8.59208C7.2012 15.3872 7.2038 22.1807 7.21527 28.9727L7.20901 28.9711ZM70.8908 3.29022C70.8908 2.665 71.1752 2.33676 71.8286 2.33676C72.4819 2.33676 72.782 2.63217 72.7664 3.28397C72.7508 3.67317 72.7664 4.06549 72.7664 4.45C72.7664 5.52382 72.7664 5.52382 71.727 5.52225C70.8939 5.52225 70.8939 5.52225 70.8939 4.14521C70.8908 3.86073 70.8908 3.57782 70.8908 3.29022ZM73.3541 29.6948C72.3404 29.6401 71.3245 29.6401 70.3109 29.6948C69.5747 29.7401 69.5293 29.3822 69.5293 28.8008C69.5418 23.5447 69.5418 18.2882 69.5293 13.0311C69.5293 11.5478 69.5481 10.0613 69.5293 8.58114C69.5184 8.03407 69.7185 7.84182 70.2546 7.85432C71.3206 7.87933 72.3871 7.87933 73.4542 7.85432C74.0043 7.84182 74.1607 8.06534 74.1575 8.59833C74.1388 12.0073 74.1481 15.4164 74.1481 18.8254C74.1481 22.1828 74.1341 25.5465 74.1607 28.8961C74.1591 29.5244 73.9746 29.7229 73.3541 29.6948Z" fill="#076E81"/>
<path d="M52.5408 25.4308C51.964 24.4476 51.3779 23.4645 50.7636 22.5032C50.5495 22.1656 50.5807 22.0343 50.9199 21.8014C52.2485 20.9089 52.7378 19.1817 52.2204 17.4124C51.8218 16.0541 50.6479 15.1897 49.0146 15.1663C47.6641 15.1491 46.312 15.221 44.96 15.2741C44.0706 15.3085 43.8987 15.5383 43.9065 16.4261C43.9237 18.0626 43.9065 19.7085 43.9065 21.3372H44.3051C44.3051 23.0268 44.2957 24.7165 44.3051 26.4061C44.3129 27.2017 44.7443 27.5331 45.6477 27.5003C46.5512 27.4675 46.9435 27.0939 46.9169 26.2999C46.8872 25.3386 46.8169 24.3773 46.8185 23.416C46.8185 23.1488 46.5215 22.7002 47.0889 22.6095C47.5359 22.5376 47.9079 22.5392 48.183 23.0628C48.8364 24.3304 49.5522 25.5637 50.2697 26.7985C50.6558 27.4628 51.2919 27.5581 52.0078 27.1111C52.7456 26.65 52.9347 26.0982 52.5408 25.4308ZM48.3362 20.5213C46.6778 20.6776 46.6778 20.6776 46.6372 19.0442C46.6372 18.9145 46.6372 18.7847 46.6262 18.655C46.5918 17.5046 46.5918 17.5046 47.7657 17.4421C49.2521 17.3623 49.7508 17.7297 49.7805 18.9238C49.8086 20.0117 49.4381 20.4197 48.3362 20.5213Z" fill="#076E81"/>
<path d="M42.9116 25.9638C41.9936 22.8273 41.0729 19.6908 40.1497 16.5543C39.848 15.532 39.3541 15.1725 38.2834 15.1694C37.2409 15.1694 36.7657 15.5039 36.4531 16.4871C35.4527 19.6257 34.4555 22.7658 33.4614 25.9076C33.2097 26.7016 33.4989 27.1252 34.4461 27.4003C35.2964 27.6457 35.6966 27.4519 35.9404 26.6813C36.4875 24.9463 36.4875 24.9463 38.2709 24.9604C39.9699 24.976 39.9699 24.976 40.4029 26.6313C40.6295 27.4941 41.0516 27.7254 41.9738 27.48C42.86 27.2487 43.1523 26.786 42.9116 25.9638ZM37.4519 22.9456C37.1502 22.9596 37.0111 22.8706 37.1127 22.5454C37.4847 21.2528 37.8504 19.9586 38.2803 18.4518C38.7023 20.0743 39.0618 21.4841 39.4494 22.9409C38.7429 22.9409 38.0974 22.9331 37.4519 22.9456Z" fill="#076E81"/>
</g>
<defs>
<clipPath id="clip0_3226_303">
<rect width="76.7332" height="80" fill="white"/>
</clipPath>
</defs>
</svg>
